{
  "openapi": "3.1.0",
  "x-stoplight": {
    "id": "3nvwezhmd6z21"
  },
  "info": {
    "title": "Auth",
    "version": "1.0"
  },
  "servers": [
    {
      "url": "http://localhost:3000"
    }
  ],
  "paths": {
    "/v1/auth/login": {
      "parameters": [],
      "post": {
        "summary": "Login API",
        "tags": [],
        "responses": {
          "200": {
            "description": "OK",
            "content": {
              "application/json": {
                "schema": {
                  "type": "object",
                  "x-examples": {
                    "Example 1": {
                      "code": 200,
                      "data": {},
                      "msg": "Successfully sign in",
                      "status": true
                    }
                  },
                  "properties": {
                    "code": {
                      "type": "integer",
                      "default": 200,
                      "minimum": 200,
                      "maximum": 200,
                      "readOnly": true
                    },
                    "data": {
                      "type": "object",
                      "properties": {
                        "token": {
                          "type": "string",
                          "x-stoplight": {
                            "id": "6pz7zkku5yqob"
                          }
                        },
                        "refresh_token": {
                          "type": "string",
                          "x-stoplight": {
                            "id": "e7xp97nibbpf3"
                          }
                        },
                        "user": {
                          "$ref": "#/components/schemas/User",
                          "x-stoplight": {
                            "id": "wqexvxlontiok"
                          }
                        }
                      }
                    },
                    "msg": {
                      "type": "string",
                      "description": "Successfully sign in\n"
                    },
                    "status": {
                      "type": "boolean",
                      "description": "always true",
                      "default": true,
                      "readOnly": true
                    }
                  }
                },
                "examples": {
                  "Example 1": {
                    "value": {
                      "token": "eyJhbGciOiJIUzI1NiIsInR5cCI6IkpXVCJ9.eyJleHAiOjE3MDc1OTAyMzUsImlhdCI6MTcwNzUwMzgzNSwic3ViamVjdCI6ImFjY2Vzc190b2tlbiIsInVzZXIiOnsiaWQiOiJVU1ItMjQwMjAxLTE1MDI3MTciLCJuYW1lIjoiQWdlc3R5YSIsInJvbGVfaWQiOiJBRE1JTiJ9fQ.rYnGMFMF3-p2Gj34iJZGgTo3xZ70TNLmipns621K3-k",
                      "refresh_token": "eyJhbGciOiJIUzI1NiIsInR5cCI6IkpXVCJ9.eyJleHAiOjE3MDc1OTAyMzUsImlhdCI6MTcwNzUwMzgzNSwic3ViamVjdCI6InJlZnJlc2hfdG9rZW4iLCJ1c2VyIjp7ImlkIjoiVVNSLTI0MDIwMS0xNTAyNzE3IiwibmFtZSI6IkFnZXN0eWEiLCJyb2xlX2lkIjoiQURNSU4ifX0.vkRY2k5qpJIi3If6HZYovUGtC-sQreghEVo3-sNpW3M",
                      "user": {
                        "id": "USR-240201-1502717",
                        "created_at": "2024-02-03T11:47:02+07:00",
                        "updated_at": "2024-02-03T11:47:02+07:00",
                        "deleted_at": null,
                        "username": "agestya78",
                        "password": "",
                        "name": "Agestya",
                        "email": "agestyadoank@gmail.com",
                        "phone": "6281549751634",
                        "role_id": "ADMIN"
                      }
                    }
                  }
                }
              }
            }
          },
          "400": {
            "description": "Bad Request",
            "headers": {},
            "content": {
              "application/json": {
                "schema": {
                  "type": "object",
                  "x-examples": {
                    "Example 1": {
                      "code": 400,
                      "message": "username or password not match"
                    }
                  },
                  "properties": {
                    "code": {
                      "type": "integer",
                      "minimum": 400,
                      "maximum": 400,
                      "default": 400,
                      "example": 400,
                      "readOnly": true
                    },
                    "message": {
                      "type": "string",
                      "description": "username or password not match"
                    }
                  }
                },
                "examples": {
                  "Example 1": {
                    "value": {
                      "code": 400,
                      "message": "username or password not match"
                    }
                  }
                }
              }
            }
          }
        },
        "operationId": "post-v1-auth-login",
        "x-stoplight": {
          "id": "se8z7k8lhjtnf"
        },
        "requestBody": {
          "content": {
            "application/json": {
              "schema": {
                "type": "object",
                "x-examples": {
                  "Example 1": {
                    "username": "johnlbf02",
                    "password": "skkskksskskss"
                  }
                },
                "required": [
                  "username",
                  "password"
                ],
                "properties": {
                  "username": {
                    "type": "string"
                  },
                  "password": {
                    "type": "string"
                  }
                }
              }
            }
          }
        }
      }
    },
    "/v1/auth/logout": {
      "parameters": [],
      "post": {
        "summary": "Logout API",
        "tags": [],
        "responses": {
          "200": {
            "description": "OK",
            "content": {
              "application/json": {
                "schema": {
                  "type": "object",
                  "x-examples": {
                    "Example 1": {
                      "code": 200,
                      "msg": "Successfully sign out",
                      "status": true
                    }
                  },
                  "properties": {
                    "code": {
                      "type": "integer",
                      "default": 200,
                      "example": 200,
                      "minimum": 200,
                      "maximum": 200,
                      "readOnly": true
                    },
                    "msg": {
                      "type": "string",
                      "description": "Successfully sign out",
                      "readOnly": true
                    },
                    "status": {
                      "type": "boolean",
                      "default": true,
                      "readOnly": true
                    }
                  }
                },
                "examples": {
                  "Example 1": {
                    "value": {
                      "code": 200,
                      "msg": "Successfully sign out",
                      "status": true
                    }
                  }
                }
              }
            }
          }
        },
        "operationId": "post-v1-auth-logout",
        "requestBody": {
          "content": {}
        },
        "x-stoplight": {
          "id": "jk5d98i9mm3i8"
        },
        "parameters": [
          {
            "schema": {
              "type": "string",
              "example": "eyJhbGciOiJIUzI1NiIsInR5cCI6IkpXVCJ9.eyJleHAiOjE3MDc1OTAyMzUsImlhdCI6MTcwNzUwMzgzNSwic3ViamVjdCI6ImFjY2Vzc190b2tlbiIsInVzZXIiOnsiaWQiOiJVU1ItMjQwMjAxLTE1MDI3MTciLCJuYW1lIjoiQWdlc3R5YSIsInJvbGVfaWQiOiJBRE1JTiJ9fQ.rYnGMFMF3-p2Gj34iJZGgTo3xZ70TNLmipns621K3-k"
            },
            "in": "header",
            "name": "Authorization",
            "description": "access token",
            "required": true
          }
        ]
      }
    },
    "/v1/auth/refresh-token": {
      "parameters": [],
      "post": {
        "summary": "Re-generate token API",
        "tags": [],
        "responses": {
          "200": {
            "description": "OK",
            "content": {
              "application/json": {
                "schema": {
                  "type": "object",
                  "x-examples": {
                    "Example 1": {
                      "code": 200,
                      "data": {},
                      "msg": "Successfully refresh the token",
                      "status": true
                    }
                  },
                  "properties": {
                    "code": {
                      "type": "integer",
                      "default": 200,
                      "example": 200,
                      "minimum": 200,
                      "maximum": 200,
                      "readOnly": true
                    },
                    "data": {
                      "type": "object",
                      "properties": {
                        "token": {
                          "type": "string",
                          "x-stoplight": {
                            "id": "ww0hsc9nepf2f"
                          }
                        },
                        "refersh-token": {
                          "type": "string",
                          "x-stoplight": {
                            "id": "99ko6nszk7y86"
                          }
                        },
                        "user": {
                          "$ref": "#/components/schemas/User",
                          "x-stoplight": {
                            "id": "t15a70zbub3q2"
                          }
                        }
                      }
                    },
                    "msg": {
                      "type": "string",
                      "description": "Successfully refresh the token"
                    },
                    "status": {
                      "type": "boolean",
                      "default": true,
                      "readOnly": true
                    }
                  }
                },
                "examples": {
                  "Example 1": {
                    "value": {
                      "token": "eyJhbGciOiJIUzI1NiIsInR5cCI6IkpXVCJ9.eyJleHAiOjE3MDc1OTAyMzUsImlhdCI6MTcwNzUwMzgzNSwic3ViamVjdCI6ImFjY2Vzc190b2tlbiIsInVzZXIiOnsiaWQiOiJVU1ItMjQwMjAxLTE1MDI3MTciLCJuYW1lIjoiQWdlc3R5YSIsInJvbGVfaWQiOiJBRE1JTiJ9fQ.rYnGMFMF3-p2Gj34iJZGgTo3xZ70TNLmipns621K3-k",
                      "refresh_token": "eyJhbGciOiJIUzI1NiIsInR5cCI6IkpXVCJ9.eyJleHAiOjE3MDc1OTAyMzUsImlhdCI6MTcwNzUwMzgzNSwic3ViamVjdCI6InJlZnJlc2hfdG9rZW4iLCJ1c2VyIjp7ImlkIjoiVVNSLTI0MDIwMS0xNTAyNzE3IiwibmFtZSI6IkFnZXN0eWEiLCJyb2xlX2lkIjoiQURNSU4ifX0.vkRY2k5qpJIi3If6HZYovUGtC-sQreghEVo3-sNpW3M",
                      "user": {
                        "id": "USR-240201-1502717",
                        "created_at": "2024-02-03T11:47:02+07:00",
                        "updated_at": "2024-02-03T11:47:02+07:00",
                        "deleted_at": null,
                        "username": "agestya78",
                        "password": "",
                        "name": "Agestya",
                        "email": "agestyadoank@gmail.com",
                        "phone": "6281549751634",
                        "role_id": "ADMIN"
                      }
                    }
                  }
                }
              }
            }
          }
        },
        "operationId": "post-v1-auth-refresh-token",
        "requestBody": {
          "content": {
            "application/json": {
              "schema": {
                "type": "object",
                "x-examples": {
                  "Example 1": {
                    "token": "token"
                  }
                },
                "required": [
                  "token"
                ],
                "properties": {
                  "token": {
                    "type": "string"
                  }
                }
              }
            }
          }
        },
        "parameters": [
          {
            "schema": {
              "type": "string"
            },
            "in": "header",
            "name": "Authorization",
            "description": "access token",
            "required": true
          }
        ],
        "x-stoplight": {
          "id": "02pr2tu9l3726"
        }
      }
    },
    "/v1/user": {
      "post": {
        "summary": "Create user",
        "tags": [],
        "responses": {
          "200": {
            "description": "OK",
            "content": {
              "application/json": {
                "schema": {
                  "type": "object",
                  "x-examples": {
                    "Example 1": {
                      "code": 200,
                      "msg": "User has been successfully created",
                      "status": true
                    }
                  },
                  "properties": {
                    "code": {
                      "type": "integer",
                      "default": 200,
                      "example": 200,
                      "minimum": 200,
                      "maximum": 200,
                      "readOnly": true
                    },
                    "msg": {
                      "type": "string",
                      "description": "User has been successfully created"
                    },
                    "status": {
                      "type": "boolean",
                      "default": true,
                      "readOnly": true
                    }
                  }
                },
                "examples": {
                  "Example 1": {
                    "value": {
                      "code": 200,
                      "msg": "User has been successfully created",
                      "status": true
                    }
                  }
                }
              }
            }
          }
        },
        "operationId": "post-v1-user",
        "x-stoplight": {
          "id": "f9qenoskipdba"
        },
        "requestBody": {
          "content": {
            "application/json": {
              "schema": {
                "type": "object",
                "x-examples": {
                  "Example 1": {
                    "name": "Aldy Yuan",
                    "username": "yuan",
                    "password": "Yuan2024!",
                    "email": "",
                    "phone": "",
                    "role_id": "ADMIN"
                  }
                },
                "required": [
                  "name",
                  "username",
                  "password",
                  "role_id"
                ],
                "properties": {
                  "name": {
                    "type": "string"
                  },
                  "username": {
                    "type": "string"
                  },
                  "password": {
                    "type": "string"
                  },
                  "email": {
                    "type": "string"
                  },
                  "phone": {
                    "type": "string"
                  },
                  "role_id": {
                    "enum": [
                      "USER",
                      "ADMIN"
                    ]
                  }
                }
              },
              "examples": {
                "Example 1": {
                  "value": {
                    "name": "Aldy Yuan",
                    "username": "yuan",
                    "password": "Yuan2024!",
                    "email": "",
                    "phone": "",
                    "role_id": "ADMIN"
                  }
                }
              }
            }
          }
        },
        "parameters": [
          {
            "schema": {
              "type": "string",
              "example": "eyJhbGciOiJIUzI1NiIsInR5cCI6IkpXVCJ9.eyJleHAiOjE3MDc1OTAyMzUsImlhdCI6MTcwNzUwMzgzNSwic3ViamVjdCI6ImFjY2Vzc190b2tlbiIsInVzZXIiOnsiaWQiOiJVU1ItMjQwMjAxLTE1MDI3MTciLCJuYW1lIjoiQWdlc3R5YSIsInJvbGVfaWQiOiJBRE1JTiJ9fQ.rYnGMFMF3-p2Gj34iJZGgTo3xZ70TNLmipns621K3-k"
            },
            "in": "header",
            "name": "Authorization",
            "description": "token",
            "required": true
          }
        ]
      },
      "get": {
        "summary": "Get user information detail",
        "tags": [],
        "responses": {
          "200": {
            "description": "OK",
            "content": {
              "application/json": {
                "schema": {
                  "type": "object",
                  "x-examples": {
                    "Example 1": {
                      "code": 200,
                      "data": {},
                      "status": true
                    }
                  },
                  "properties": {
                    "code": {
                      "type": "integer",
                      "default": 200,
                      "example": 200,
                      "minimum": 200,
                      "maximum": 200
                    },
                    "data": {
                      "$ref": "#/components/schemas/User"
                    },
                    "status": {
                      "type": "boolean",
                      "default": true,
                      "readOnly": true
                    }
                  }
                },
                "examples": {
                  "Example 1": {
                    "value": {
                      "code": 200,
                      "data": {
                        "id": "USR-240201-1502717",
                        "created_at": "2024-02-03T11:47:02+07:00",
                        "updated_at": "2024-02-03T11:47:02+07:00",
                        "DeletedAt": null,
                        "username": "agestya78",
                        "password": "$2a$10$Qqq6F4q6sm0QtIMSEx//y.okjn5fkEWJ2uWDyGFaDmLlnGxDlSPti",
                        "name": "Agestya",
                        "email": "agestyadoank@gmail.com",
                        "phone": "6281549751634",
                        "role_id": "ADMIN"
                      },
                      "status": true
                    }
                  }
                }
              }
            }
          }
        },
        "operationId": "get-v1-user",
        "x-stoplight": {
          "id": "0q5u3h32p68ep"
        },
        "parameters": [
          {
            "schema": {
              "type": "string",
              "example": "eyJhbGciOiJIUzI1NiIsInR5cCI6IkpXVCJ9.eyJleHAiOjE3MDc1OTAyMzUsImlhdCI6MTcwNzUwMzgzNSwic3ViamVjdCI6ImFjY2Vzc190b2tlbiIsInVzZXIiOnsiaWQiOiJVU1ItMjQwMjAxLTE1MDI3MTciLCJuYW1lIjoiQWdlc3R5YSIsInJvbGVfaWQiOiJBRE1JTiJ9fQ.rYnGMFMF3-p2Gj34iJZGgTo3xZ70TNLmipns621K3-k"
            },
            "in": "header",
            "name": "authorization",
            "description": "token"
          }
        ]
      }
    }
  },
  "components": {
    "schemas": {
      "User": {
        "type": "object",
        "x-examples": {
          "Example 1": {
            "id": "USR-82382-29428948",
            "created_at": "",
            "updated_at": "",
            "deleted_at": "",
            "username": "johnlbf01",
            "password": "-",
            "name": "John doe",
            "email": "johndoe@lbf.id",
            "phone": "6281549751634",
            "role_id": "USER"
          }
        },
        "examples": [
          {
            "id": "string",
            "created_at": "2019-08-24T14:15:22Z",
            "updated_at": "2019-08-24T14:15:22Z",
            "deleted_at": null,
            "username": "string",
            "password": "string",
            "name": "string",
            "email": "user@example.com",
            "phone": "string",
            "role_id": "USER"
          }
        ],
        "required": [
          "username",
          "password",
          "name",
          "role_id"
        ],
        "properties": {
          "id": {
            "type": "string"
          },
          "created_at": {
            "type": "string",
            "format": "date-time"
          },
          "updated_at": {
            "type": "string",
            "format": "date-time"
          },
          "deleted_at": {
            "type": [
              "string",
              "null"
            ],
            "default": null
          },
          "username": {
            "type": "string"
          },
          "password": {
            "type": "string"
          },
          "name": {
            "type": "string"
          },
          "email": {
            "type": "string",
            "format": "email"
          },
          "phone": {
            "type": "string"
          },
          "role_id": {
            "enum": [
              "USER",
              "ADMIN"
            ]
          }
        }
      }
    }
  }
}